properties{
  x = 0,
  y = 0,
  width = 640,
  height = 720,
  min_layer = 0,
  max_layer = 2,
  tileset = "oceanset_inside",
}

tile{
  layer = 0,
  x = 64,
  y = 304,
  width = 160,
  height = 144,
  pattern = "20",
}

tile{
  layer = 0,
  x = 64,
  y = 304,
  width = 160,
  height = 8,
  pattern = "21",
}

tile{
  layer = 0,
  x = 384,
  y = 240,
  width = 32,
  height = 32,
  pattern = "35_8",
  tileset = "oceanset_inside",
}

tile{
  layer = 0,
  x = 352,
  y = 208,
  width = 256,
  height = 32,
  pattern = "39_3",
  tileset = "oceanset_inside",
}

tile{
  layer = 0,
  x = 352,
  y = 32,
  width = 256,
  height = 176,
  pattern = "4",
}

tile{
  layer = 0,
  x = 352,
  y = 48,
  width = 256,
  height = 160,
  pattern = "5",
}

tile{
  layer = 0,
  x = 448,
  y = 64,
  width = 128,
  height = 96,
  pattern = "12",
}

tile{
  layer = 0,
  x = 32,
  y = 32,
  width = 256,
  height = 96,
  pattern = "1",
}

tile{
  layer = 0,
  x = 128,
  y = 128,
  width = 160,
  height = 64,
  pattern = "1",
}

tile{
  layer = 0,
  x = 32,
  y = 0,
  width = 256,
  height = 32,
  pattern = "35_2",
  tileset = "oceanset_inside",
}

tile{
  layer = 0,
  x = 0,
  y = 32,
  width = 32,
  height = 96,
  pattern = "41_2",
  tileset = "oceanset_inside",
}

tile{
  layer = 0,
  x = 288,
  y = 32,
  width = 32,
  height = 160,
  pattern = "37_2",
  tileset = "oceanset_inside",
}

tile{
  layer = 0,
  x = 32,
  y = 128,
  width = 64,
  height = 32,
  pattern = "39_2",
  tileset = "oceanset_inside",
}

tile{
  layer = 0,
  x = 96,
  y = 160,
  width = 32,
  height = 32,
  pattern = "41_2",
  tileset = "oceanset_inside",
}

tile{
  layer = 0,
  x = 128,
  y = 192,
  width = 160,
  height = 32,
  pattern = "39_2",
  tileset = "oceanset_inside",
}

tile{
  layer = 0,
  x = 0,
  y = 0,
  width = 32,
  height = 32,
  pattern = "34_2",
  tileset = "oceanset_inside",
}

tile{
  layer = 0,
  x = 288,
  y = 0,
  width = 32,
  height = 32,
  pattern = "36_2",
  tileset = "oceanset_inside",
}

tile{
  layer = 0,
  x = 0,
  y = 128,
  width = 32,
  height = 32,
  pattern = "40_2",
  tileset = "oceanset_inside",
}

tile{
  layer = 0,
  x = 96,
  y = 128,
  width = 32,
  height = 32,
  pattern = "43_2",
  tileset = "oceanset_inside",
}

tile{
  layer = 0,
  x = 96,
  y = 192,
  width = 32,
  height = 32,
  pattern = "40_2",
  tileset = "oceanset_inside",
}

tile{
  layer = 0,
  x = 288,
  y = 192,
  width = 32,
  height = 32,
  pattern = "38_2",
  tileset = "oceanset_inside",
}

tile{
  layer = 0,
  x = 8,
  y = 0,
  width = 304,
  height = 8,
  pattern = "plaster_wall_trim_2",
  tileset = "oceanset_inside",
}

tile{
  layer = 0,
  x = 0,
  y = 8,
  width = 8,
  height = 144,
  pattern = "plaster_wall_trim_8",
  tileset = "oceanset_inside",
}

tile{
  layer = 0,
  x = 312,
  y = 8,
  width = 8,
  height = 208,
  pattern = "plaster_wall_trim_4",
  tileset = "oceanset_inside",
}

tile{
  layer = 0,
  x = 8,
  y = 152,
  width = 88,
  height = 8,
  pattern = "plaster_wall_trim_6",
  tileset = "oceanset_inside",
}

tile{
  layer = 0,
  x = 96,
  y = 160,
  width = 8,
  height = 56,
  pattern = "plaster_wall_trim_8",
  tileset = "oceanset_inside",
}

tile{
  layer = 0,
  x = 104,
  y = 216,
  width = 208,
  height = 8,
  pattern = "plaster_wall_trim_6",
  tileset = "oceanset_inside",
}

tile{
  layer = 0,
  x = 0,
  y = 0,
  width = 8,
  height = 8,
  pattern = "plaster_wall_trim_1",
  tileset = "oceanset_inside",
}

tile{
  layer = 0,
  x = 312,
  y = 0,
  width = 8,
  height = 8,
  pattern = "plaster_wall_trim_3",
  tileset = "oceanset_inside",
}

tile{
  layer = 0,
  x = 0,
  y = 152,
  width = 8,
  height = 8,
  pattern = "plaster_wall_trim_7",
  tileset = "oceanset_inside",
}

tile{
  layer = 0,
  x = 96,
  y = 152,
  width = 8,
  height = 8,
  pattern = "plaster_wall_trim_10",
  tileset = "oceanset_inside",
}

tile{
  layer = 0,
  x = 96,
  y = 216,
  width = 8,
  height = 8,
  pattern = "plaster_wall_trim_7",
  tileset = "oceanset_inside",
}

tile{
  layer = 0,
  x = 312,
  y = 216,
  width = 8,
  height = 8,
  pattern = "plaster_wall_trim_5",
  tileset = "oceanset_inside",
}

tile{
  layer = 0,
  x = 288,
  y = 0,
  width = 32,
  height = 32,
  pattern = "46",
}

tile{
  layer = 0,
  x = 288,
  y = 192,
  width = 32,
  height = 32,
  pattern = "46_4",
}

tile{
  layer = 0,
  x = 96,
  y = 192,
  width = 32,
  height = 32,
  pattern = "46_3",
}

tile{
  layer = 0,
  x = 0,
  y = 128,
  width = 32,
  height = 32,
  pattern = "46_3",
}

tile{
  layer = 0,
  x = 0,
  y = 0,
  width = 32,
  height = 32,
  pattern = "46_2",
}

tile{
  layer = 0,
  x = 224,
  y = 0,
  width = 16,
  height = 32,
  pattern = "47",
}

tile{
  layer = 0,
  x = 80,
  y = 0,
  width = 16,
  height = 32,
  pattern = "47",
}

tile{
  layer = 0,
  x = 152,
  y = 0,
  width = 16,
  height = 32,
  pattern = "47",
}

tile{
  layer = 0,
  x = 352,
  y = 0,
  width = 256,
  height = 32,
  pattern = "35_3",
  tileset = "oceanset_inside",
}

tile{
  layer = 0,
  x = 320,
  y = 32,
  width = 32,
  height = 176,
  pattern = "41_3",
  tileset = "oceanset_inside",
}

tile{
  layer = 0,
  x = 608,
  y = 32,
  width = 32,
  height = 176,
  pattern = "37_3",
  tileset = "oceanset_inside",
}

tile{
  layer = 0,
  x = 320,
  y = 0,
  width = 32,
  height = 32,
  pattern = "34_3",
  tileset = "oceanset_inside",
}

tile{
  layer = 0,
  x = 608,
  y = 0,
  width = 32,
  height = 32,
  pattern = "36_3",
  tileset = "oceanset_inside",
}

tile{
  layer = 0,
  x = 320,
  y = 208,
  width = 32,
  height = 32,
  pattern = "40_3",
  tileset = "oceanset_inside",
}

tile{
  layer = 0,
  x = 608,
  y = 208,
  width = 32,
  height = 32,
  pattern = "38_3",
  tileset = "oceanset_inside",
}

tile{
  layer = 0,
  x = 448,
  y = 32,
  width = 128,
  height = 32,
  pattern = "35_3",
  tileset = "oceanset_inside",
}

tile{
  layer = 0,
  x = 416,
  y = 64,
  width = 32,
  height = 96,
  pattern = "41_3",
  tileset = "oceanset_inside",
}

tile{
  layer = 0,
  x = 576,
  y = 64,
  width = 32,
  height = 96,
  pattern = "37_3",
  tileset = "oceanset_inside",
}

tile{
  layer = 0,
  x = 416,
  y = 32,
  width = 32,
  height = 32,
  pattern = "34_3",
  tileset = "oceanset_inside",
}

tile{
  layer = 0,
  x = 576,
  y = 32,
  width = 32,
  height = 32,
  pattern = "36_3",
  tileset = "oceanset_inside",
}

tile{
  layer = 0,
  x = 448,
  y = 56,
  width = 32,
  height = 32,
  pattern = "statue_base",
}

tile{
  layer = 0,
  x = 544,
  y = 56,
  width = 32,
  height = 32,
  pattern = "statue_base",
}

tile{
  layer = 0,
  x = 504,
  y = 48,
  width = 16,
  height = 16,
  pattern = "12",
}

tile{
  layer = 0,
  x = 504,
  y = 32,
  width = 16,
  height = 32,
  pattern = "52_7",
}

tile{
  layer = 0,
  x = 496,
  y = 32,
  width = 8,
  height = 32,
  pattern = "50_5",
}

tile{
  layer = 0,
  x = 520,
  y = 32,
  width = 8,
  height = 32,
  pattern = "51_7",
}

tile{
  layer = 0,
  x = 288,
  y = 72,
  width = 32,
  height = 8,
  pattern = "56_4",
}

tile{
  layer = 0,
  x = 320,
  y = 72,
  width = 32,
  height = 8,
  pattern = "56_3",
}

tile{
  layer = 0,
  x = 288,
  y = 48,
  width = 32,
  height = 8,
  pattern = "54_4",
}

tile{
  layer = 0,
  x = 288,
  y = 56,
  width = 32,
  height = 16,
  pattern = "55_4",
}

tile{
  layer = 0,
  x = 320,
  y = 56,
  width = 32,
  height = 16,
  pattern = "55_3",
}

tile{
  layer = 0,
  x = 320,
  y = 48,
  width = 32,
  height = 8,
  pattern = "54_3",
}

tile{
  layer = 0,
  x = 64,
  y = 32,
  width = 32,
  height = 16,
  pattern = "2",
}

tile{
  layer = 0,
  x = 56,
  y = 48,
  width = 32,
  height = 16,
  pattern = "3",
}

tile{
  layer = 0,
  x = 104,
  y = 64,
  width = 32,
  height = 16,
  pattern = "2",
}

tile{
  layer = 0,
  x = 240,
  y = 120,
  width = 32,
  height = 16,
  pattern = "2",
}

tile{
  layer = 0,
  x = 152,
  y = 152,
  width = 32,
  height = 16,
  pattern = "2",
}

tile{
  layer = 0,
  x = 224,
  y = 176,
  width = 32,
  height = 16,
  pattern = "2",
}

tile{
  layer = 0,
  x = 256,
  y = 136,
  width = 32,
  height = 16,
  pattern = "3",
}

tile{
  layer = 0,
  x = 56,
  y = 104,
  width = 32,
  height = 16,
  pattern = "3",
}

tile{
  layer = 0,
  x = 224,
  y = 32,
  width = 32,
  height = 16,
  pattern = "3",
}

tile{
  layer = 0,
  x = 128,
  y = 176,
  width = 32,
  height = 16,
  pattern = "3",
}

tile{
  layer = 0,
  x = 192,
  y = 192,
  width = 8,
  height = 32,
  pattern = "50_4",
}

tile{
  layer = 0,
  x = 216,
  y = 192,
  width = 8,
  height = 32,
  pattern = "51_4",
}

tile{
  layer = 0,
  x = 200,
  y = 192,
  width = 16,
  height = 32,
  pattern = "52_3",
}

tile{
  layer = 0,
  x = 216,
  y = 88,
  width = 8,
  height = 8,
  pattern = "30_6",
}

tile{
  layer = 0,
  x = 216,
  y = 32,
  width = 8,
  height = 8,
  pattern = "28_6",
}

tile{
  layer = 0,
  x = 144,
  y = 32,
  width = 8,
  height = 8,
  pattern = "27_12",
}

tile{
  layer = 0,
  x = 152,
  y = 32,
  width = 64,
  height = 8,
  pattern = "27_11",
}

tile{
  layer = 0,
  x = 144,
  y = 40,
  width = 8,
  height = 48,
  pattern = "33_6",
}

tile{
  layer = 0,
  x = 152,
  y = 88,
  width = 64,
  height = 8,
  pattern = "31_6",
}

tile{
  layer = 0,
  x = 216,
  y = 40,
  width = 8,
  height = 48,
  pattern = "29_6",
}

tile{
  layer = 0,
  x = 152,
  y = 40,
  width = 64,
  height = 48,
  pattern = "26_6",
}

tile{
  layer = 0,
  x = 144,
  y = 88,
  width = 8,
  height = 8,
  pattern = "32_6",
}

tile{
  layer = 0,
  x = 168,
  y = 40,
  width = 32,
  height = 24,
  pattern = "77",
}

tile{
  layer = 0,
  x = 200,
  y = 40,
  width = 8,
  height = 24,
  pattern = "78",
}

tile{
  layer = 0,
  x = 160,
  y = 40,
  width = 8,
  height = 24,
  pattern = "76",
}

tile{
  layer = 0,
  x = 184,
  y = 40,
  width = 16,
  height = 16,
  pattern = "90",
}

tile{
  layer = 0,
  x = 168,
  y = 48,
  width = 16,
  height = 8,
  pattern = "92",
}

tile{
  layer = 0,
  x = 176,
  y = 32,
  width = 8,
  height = 16,
  pattern = "87",
}

tile{
  layer = 0,
  x = 32,
  y = 32,
  width = 48,
  height = 16,
  pattern = "68",
}

tile{
  layer = 0,
  x = 96,
  y = 24,
  width = 16,
  height = 24,
  pattern = "73_2",
}

tile{
  layer = 0,
  x = 112,
  y = 24,
  width = 16,
  height = 24,
  pattern = "73_3",
}

tile{
  layer = 0,
  x = 80,
  y = 24,
  width = 16,
  height = 24,
  pattern = "73",
}

tile{
  layer = 0,
  x = 352,
  y = 272,
  width = 32,
  height = 80,
  pattern = "41_8",
  tileset = "oceanset_inside",
}

tile{
  layer = 0,
  x = 416,
  y = 272,
  width = 32,
  height = 16,
  pattern = "37_7",
  tileset = "oceanset_inside",
}

tile{
  layer = 0,
  x = 448,
  y = 288,
  width = 128,
  height = 32,
  pattern = "35_8",
  tileset = "oceanset_inside",
}

tile{
  layer = 0,
  x = 576,
  y = 320,
  width = 32,
  height = 112,
  pattern = "37_7",
  tileset = "oceanset_inside",
}

tile{
  layer = 0,
  x = 384,
  y = 352,
  width = 128,
  height = 32,
  pattern = "39_7",
  tileset = "oceanset_inside",
}

tile{
  layer = 0,
  x = 352,
  y = 384,
  width = 160,
  height = 32,
  pattern = "35_8",
  tileset = "oceanset_inside",
}

tile{
  layer = 0,
  x = 320,
  y = 416,
  width = 32,
  height = 32,
  pattern = "41_8",
  tileset = "oceanset_inside",
}

tile{
  layer = 0,
  x = 352,
  y = 448,
  width = 192,
  height = 32,
  pattern = "39_7",
  tileset = "oceanset_inside",
}

tile{
  layer = 0,
  x = 352,
  y = 240,
  width = 32,
  height = 32,
  pattern = "34_8",
  tileset = "oceanset_inside",
}

tile{
  layer = 0,
  x = 416,
  y = 240,
  width = 32,
  height = 32,
  pattern = "36_8",
  tileset = "oceanset_inside",
}

tile{
  layer = 0,
  x = 416,
  y = 288,
  width = 32,
  height = 32,
  pattern = "45_7",
  tileset = "oceanset_inside",
}

tile{
  layer = 0,
  x = 576,
  y = 288,
  width = 32,
  height = 32,
  pattern = "36_8",
  tileset = "oceanset_inside",
}

tile{
  layer = 0,
  x = 352,
  y = 352,
  width = 32,
  height = 32,
  pattern = "40_7",
  tileset = "oceanset_inside",
}

tile{
  layer = 0,
  x = 512,
  y = 352,
  width = 32,
  height = 32,
  pattern = "43_7",
  tileset = "oceanset_inside",
}

tile{
  layer = 0,
  x = 320,
  y = 384,
  width = 32,
  height = 32,
  pattern = "34_8",
  tileset = "oceanset_inside",
}

tile{
  layer = 0,
  x = 512,
  y = 384,
  width = 32,
  height = 32,
  pattern = "44_8",
  tileset = "oceanset_inside",
}

tile{
  layer = 0,
  x = 544,
  y = 432,
  width = 32,
  height = 32,
  pattern = "42_7",
  tileset = "oceanset_inside",
}

tile{
  layer = 0,
  x = 576,
  y = 432,
  width = 32,
  height = 32,
  pattern = "38_8",
  tileset = "oceanset_inside",
}

tile{
  layer = 0,
  x = 320,
  y = 448,
  width = 32,
  height = 32,
  pattern = "40_7",
  tileset = "oceanset_inside",
}

tile{
  layer = 0,
  x = 544,
  y = 448,
  width = 32,
  height = 32,
  pattern = "38_8",
  tileset = "oceanset_inside",
}

tile{
  layer = 0,
  x = 576,
  y = 288,
  width = 32,
  height = 32,
  pattern = "46",
}

tile{
  layer = 0,
  x = 416,
  y = 240,
  width = 32,
  height = 32,
  pattern = "46",
}

tile{
  layer = 0,
  x = 544,
  y = 448,
  width = 32,
  height = 32,
  pattern = "46_4",
}

tile{
  layer = 0,
  x = 576,
  y = 432,
  width = 32,
  height = 32,
  pattern = "46_4",
}

tile{
  layer = 0,
  x = 320,
  y = 448,
  width = 32,
  height = 32,
  pattern = "46_3",
}

tile{
  layer = 0,
  x = 352,
  y = 352,
  width = 32,
  height = 32,
  pattern = "46_3",
}

tile{
  layer = 0,
  x = 352,
  y = 240,
  width = 32,
  height = 32,
  pattern = "46_2",
}

tile{
  layer = 0,
  x = 320,
  y = 384,
  width = 32,
  height = 32,
  pattern = "46_2",
}

tile{
  layer = 0,
  x = 416,
  y = 288,
  width = 32,
  height = 32,
  pattern = "46",
}

tile{
  layer = 0,
  x = 208,
  y = 416,
  width = 80,
  height = 32,
  pattern = "20",
}

tile{
  layer = 0,
  x = 64,
  y = 272,
  width = 160,
  height = 32,
  pattern = "35_5",
  tileset = "oceanset_inside",
}

tile{
  layer = 0,
  x = 32,
  y = 304,
  width = 32,
  height = 144,
  pattern = "41_5",
  tileset = "oceanset_inside",
}

tile{
  layer = 0,
  x = 224,
  y = 304,
  width = 32,
  height = 80,
  pattern = "37_6",
  tileset = "oceanset_inside",
}

tile{
  layer = 0,
  x = 256,
  y = 384,
  width = 32,
  height = 32,
  pattern = "35_5",
  tileset = "oceanset_inside",
}

tile{
  layer = 0,
  x = 288,
  y = 416,
  width = 32,
  height = 32,
  pattern = "37_6",
  tileset = "oceanset_inside",
}

tile{
  layer = 0,
  x = 64,
  y = 448,
  width = 224,
  height = 32,
  pattern = "39_6",
  tileset = "oceanset_inside",
}

tile{
  layer = 0,
  x = 32,
  y = 272,
  width = 32,
  height = 32,
  pattern = "34_5",
  tileset = "oceanset_inside",
}

tile{
  layer = 0,
  x = 224,
  y = 272,
  width = 32,
  height = 32,
  pattern = "36_5",
  tileset = "oceanset_inside",
}

tile{
  layer = 0,
  x = 224,
  y = 384,
  width = 32,
  height = 32,
  pattern = "45_6",
  tileset = "oceanset_inside",
}

tile{
  layer = 0,
  x = 288,
  y = 384,
  width = 32,
  height = 32,
  pattern = "36_5",
  tileset = "oceanset_inside",
}

tile{
  layer = 0,
  x = 32,
  y = 448,
  width = 32,
  height = 32,
  pattern = "40_6",
  tileset = "oceanset_inside",
}

tile{
  layer = 0,
  x = 288,
  y = 448,
  width = 32,
  height = 32,
  pattern = "38_5",
  tileset = "oceanset_inside",
}

tile{
  layer = 0,
  x = 96,
  y = 296,
  width = 32,
  height = 32,
  pattern = "statue_base",
}

tile{
  layer = 0,
  x = 160,
  y = 296,
  width = 32,
  height = 32,
  pattern = "statue_base",
}

tile{
  layer = 0,
  x = 96,
  y = 288,
  width = 32,
  height = 32,
  pattern = "statue_4",
}

tile{
  layer = 0,
  x = 288,
  y = 440,
  width = 32,
  height = 8,
  pattern = "56",
}

tile{
  layer = 0,
  x = 320,
  y = 424,
  width = 32,
  height = 16,
  pattern = "55_2",
}

tile{
  layer = 0,
  x = 288,
  y = 416,
  width = 32,
  height = 8,
  pattern = "54",
}

tile{
  layer = 0,
  x = 288,
  y = 424,
  width = 32,
  height = 16,
  pattern = "55",
}

tile{
  layer = 0,
  x = 320,
  y = 440,
  width = 32,
  height = 8,
  pattern = "56_2",
}

tile{
  layer = 0,
  x = 320,
  y = 416,
  width = 32,
  height = 8,
  pattern = "54_2",
}

tile{
  layer = 0,
  x = 408,
  y = 208,
  width = 8,
  height = 32,
  pattern = "51_8",
}

tile{
  layer = 0,
  x = 384,
  y = 208,
  width = 8,
  height = 32,
  pattern = "50_7",
}

tile{
  layer = 0,
  x = 384,
  y = 240,
  width = 8,
  height = 32,
  pattern = "50_8",
}

tile{
  layer = 0,
  x = 408,
  y = 240,
  width = 8,
  height = 32,
  pattern = "51_5",
}

tile{
  layer = 0,
  x = 392,
  y = 208,
  width = 16,
  height = 64,
  pattern = "4",
}

tile{
  layer = 0,
  x = 392,
  y = 208,
  width = 16,
  height = 32,
  pattern = "52_8",
}

tile{
  layer = 0,
  x = 392,
  y = 240,
  width = 16,
  height = 32,
  pattern = "52_5",
}

tile{
  layer = 0,
  x = 448,
  y = 56,
  width = 32,
  height = 32,
  pattern = "statue_1",
}

tile{
  layer = 0,
  x = 544,
  y = 56,
  width = 32,
  height = 32,
  pattern = "statue_1",
}

tile{
  layer = 0,
  x = 264,
  y = 32,
  width = 16,
  height = 16,
  pattern = "window_cast_light",
}

tile{
  layer = 0,
  x = 264,
  y = 8,
  width = 16,
  height = 16,
  pattern = "83",
}

tile{
  layer = 0,
  x = 128,
  y = 32,
  width = 16,
  height = 16,
  pattern = "window_cast_light",
}

tile{
  layer = 0,
  x = 128,
  y = 8,
  width = 16,
  height = 16,
  pattern = "83",
}

tile{
  layer = 0,
  x = 192,
  y = 0,
  width = 16,
  height = 24,
  pattern = "100",
}

tile{
  layer = 0,
  x = 32,
  y = 64,
  width = 32,
  height = 48,
  pattern = "112_4",
}

tile{
  layer = 0,
  x = 216,
  y = 184,
  width = 8,
  height = 8,
  pattern = "30_5",
}

tile{
  layer = 0,
  x = 216,
  y = 176,
  width = 8,
  height = 8,
  pattern = "29_5",
}

tile{
  layer = 0,
  x = 200,
  y = 176,
  width = 16,
  height = 8,
  pattern = "26_5",
}

tile{
  layer = 0,
  x = 216,
  y = 168,
  width = 8,
  height = 8,
  pattern = "28_5",
}

tile{
  layer = 0,
  x = 192,
  y = 168,
  width = 8,
  height = 8,
  pattern = "27_10",
}

tile{
  layer = 0,
  x = 192,
  y = 176,
  width = 8,
  height = 8,
  pattern = "33_5",
}

tile{
  layer = 0,
  x = 200,
  y = 168,
  width = 16,
  height = 8,
  pattern = "27_9",
}

tile{
  layer = 0,
  x = 192,
  y = 184,
  width = 8,
  height = 8,
  pattern = "32_5",
}

tile{
  layer = 0,
  x = 200,
  y = 184,
  width = 16,
  height = 8,
  pattern = "31_5",
}

tile{
  layer = 0,
  x = 448,
  y = 152,
  width = 128,
  height = 32,
  pattern = "39_3",
  tileset = "oceanset_inside",
}

tile{
  layer = 0,
  x = 416,
  y = 152,
  width = 32,
  height = 32,
  pattern = "40_3",
  tileset = "oceanset_inside",
}

tile{
  layer = 0,
  x = 576,
  y = 152,
  width = 32,
  height = 32,
  pattern = "38_3",
  tileset = "oceanset_inside",
}

tile{
  layer = 0,
  x = 528,
  y = 152,
  width = 16,
  height = 32,
  pattern = "60_2",
}

tile{
  layer = 0,
  x = 544,
  y = 152,
  width = 8,
  height = 32,
  pattern = "59_2",
}

tile{
  layer = 0,
  x = 520,
  y = 152,
  width = 8,
  height = 32,
  pattern = "58_2",
}

tile{
  layer = 0,
  x = 408,
  y = 184,
  width = 8,
  height = 8,
  pattern = "79",
}

tile{
  layer = 0,
  x = 408,
  y = 40,
  width = 8,
  height = 144,
  pattern = "98",
}

tile{
  layer = 0,
  x = 416,
  y = 184,
  width = 104,
  height = 8,
  pattern = "86",
}

tile{
  layer = 0,
  x = 520,
  y = 184,
  width = 8,
  height = 8,
  pattern = "79",
}

tile{
  layer = 0,
  x = 408,
  y = 32,
  width = 8,
  height = 8,
  pattern = "79",
}

tile{
  layer = 0,
  x = 544,
  y = 184,
  width = 8,
  height = 8,
  pattern = "79",
}

tile{
  layer = 0,
  x = 600,
  y = 184,
  width = 8,
  height = 8,
  pattern = "79",
}

tile{
  layer = 0,
  x = 552,
  y = 184,
  width = 48,
  height = 8,
  pattern = "86",
}

tile{
  layer = 0,
  x = 64,
  y = 440,
  width = 224,
  height = 8,
  pattern = "21",
}

tile{
  layer = 0,
  x = 64,
  y = 304,
  width = 8,
  height = 144,
  pattern = "21",
}

tile{
  layer = 0,
  x = 216,
  y = 304,
  width = 8,
  height = 120,
  pattern = "21",
}

tile{
  layer = 0,
  x = 216,
  y = 416,
  width = 72,
  height = 8,
  pattern = "21",
}

tile{
  layer = 0,
  x = 200,
  y = 272,
  width = 16,
  height = 32,
  pattern = "47_3",
}

tile{
  layer = 0,
  x = 32,
  y = 320,
  width = 32,
  height = 16,
  pattern = "72_4",
}

tile{
  layer = 0,
  x = 32,
  y = 368,
  width = 32,
  height = 16,
  pattern = "72_4",
}

tile{
  layer = 0,
  x = 128,
  y = 312,
  width = 32,
  height = 32,
  pattern = "20_4",
}

tile{
  layer = 0,
  x = 64,
  y = 272,
  width = 16,
  height = 16,
  pattern = "101",
}

tile{
  layer = 0,
  x = 64,
  y = 288,
  width = 16,
  height = 16,
  pattern = "102",
}

tile{
  layer = 0,
  x = 80,
  y = 272,
  width = 16,
  height = 16,
  pattern = "101",
}

tile{
  layer = 0,
  x = 80,
  y = 280,
  width = 16,
  height = 16,
  pattern = "102",
}

tile{
  layer = 0,
  x = 152,
  y = 272,
  width = 16,
  height = 16,
  pattern = "101",
}

tile{
  layer = 0,
  x = 136,
  y = 272,
  width = 16,
  height = 16,
  pattern = "102",
}

tile{
  layer = 0,
  x = 152,
  y = 288,
  width = 16,
  height = 16,
  pattern = "102",
}

tile{
  layer = 0,
  x = 160,
  y = 288,
  width = 32,
  height = 32,
  pattern = "statue_4",
}

tile{
  layer = 0,
  x = 216,
  y = 272,
  width = 16,
  height = 16,
  pattern = "102",
}

tile{
  layer = 0,
  x = 48,
  y = 336,
  width = 16,
  height = 16,
  pattern = "102_4",
}

tile{
  layer = 0,
  x = 32,
  y = 336,
  width = 16,
  height = 16,
  pattern = "102_3",
}

tile{
  layer = 0,
  x = 40,
  y = 352,
  width = 16,
  height = 16,
  pattern = "102_4",
}

tile{
  layer = 0,
  x = 32,
  y = 352,
  width = 16,
  height = 16,
  pattern = "102_3",
}

tile{
  layer = 0,
  x = 48,
  y = 424,
  width = 16,
  height = 16,
  pattern = "102_4",
}

tile{
  layer = 0,
  x = 32,
  y = 424,
  width = 16,
  height = 16,
  pattern = "102_3",
}

tile{
  layer = 0,
  x = 32,
  y = 408,
  width = 16,
  height = 16,
  pattern = "102_4",
}

tile{
  layer = 0,
  x = 32,
  y = 304,
  width = 16,
  height = 16,
  pattern = "102_4",
}

tile{
  layer = 0,
  x = 32,
  y = 344,
  width = 16,
  height = 16,
  pattern = "102_4",
}

tile{
  layer = 0,
  x = 72,
  y = 272,
  width = 16,
  height = 32,
  pattern = "47_3",
}

tile{
  layer = 0,
  x = 136,
  y = 272,
  width = 16,
  height = 32,
  pattern = "47_3",
}

tile{
  layer = 0,
  x = 32,
  y = 416,
  width = 32,
  height = 16,
  pattern = "72_4",
}

tile{
  layer = 0,
  x = 88,
  y = 352,
  width = 40,
  height = 40,
  pattern = "hole",
}

tile{
  layer = 0,
  x = 112,
  y = 368,
  width = 32,
  height = 40,
  pattern = "hole",
}

tile{
  layer = 0,
  x = 104,
  y = 392,
  width = 8,
  height = 8,
  pattern = "hole",
}

tile{
  layer = 0,
  x = 96,
  y = 352,
  width = 24,
  height = 8,
  pattern = "hole_edge_5",
  tileset = "oceanset_inside",
}

tile{
  layer = 0,
  x = 88,
  y = 360,
  width = 8,
  height = 24,
  pattern = "hole_edge_6",
  tileset = "oceanset_inside",
}

tile{
  layer = 0,
  x = 120,
  y = 360,
  width = 8,
  height = 8,
  pattern = "hole_edge_7",
  tileset = "oceanset_inside",
}

tile{
  layer = 0,
  x = 128,
  y = 368,
  width = 8,
  height = 8,
  pattern = "hole_edge_5",
  tileset = "oceanset_inside",
}

tile{
  layer = 0,
  x = 136,
  y = 376,
  width = 8,
  height = 24,
  pattern = "hole_edge_7",
  tileset = "oceanset_inside",
}

tile{
  layer = 0,
  x = 96,
  y = 384,
  width = 8,
  height = 8,
  pattern = "hole_edge_4",
  tileset = "oceanset_inside",
}

tile{
  layer = 0,
  x = 120,
  y = 400,
  width = 16,
  height = 8,
  pattern = "hole_edge_4",
  tileset = "oceanset_inside",
}

tile{
  layer = 0,
  x = 88,
  y = 352,
  width = 8,
  height = 8,
  pattern = "hole_edge",
  tileset = "oceanset_inside",
}

tile{
  layer = 0,
  x = 120,
  y = 352,
  width = 8,
  height = 8,
  pattern = "hole_edge_1",
  tileset = "oceanset_inside",
}

tile{
  layer = 0,
  x = 120,
  y = 368,
  width = 8,
  height = 8,
  pattern = "hole_edge_11",
  tileset = "oceanset_inside",
}

tile{
  layer = 0,
  x = 136,
  y = 368,
  width = 8,
  height = 8,
  pattern = "hole_edge_1",
  tileset = "oceanset_inside",
}

tile{
  layer = 0,
  x = 88,
  y = 384,
  width = 8,
  height = 8,
  pattern = "hole_edge_2",
  tileset = "oceanset_inside",
}

tile{
  layer = 0,
  x = 104,
  y = 384,
  width = 8,
  height = 8,
  pattern = "hole_edge_10",
  tileset = "oceanset_inside",
}

tile{
  layer = 0,
  x = 104,
  y = 392,
  width = 8,
  height = 8,
  pattern = "hole_edge_2",
  tileset = "oceanset_inside",
}

tile{
  layer = 0,
  x = 112,
  y = 392,
  width = 8,
  height = 8,
  pattern = "hole_edge_10",
  tileset = "oceanset_inside",
}

tile{
  layer = 0,
  x = 112,
  y = 400,
  width = 8,
  height = 8,
  pattern = "hole_edge_2",
  tileset = "oceanset_inside",
}

tile{
  layer = 0,
  x = 136,
  y = 400,
  width = 8,
  height = 8,
  pattern = "hole_edge_3",
  tileset = "oceanset_inside",
}

tile{
  layer = 0,
  x = 184,
  y = 336,
  width = 32,
  height = 16,
  pattern = "hole_floor_below",
}

tile{
  layer = 0,
  x = 192,
  y = 352,
  width = 24,
  height = 8,
  pattern = "hole_floor_below",
}

tile{
  layer = 0,
  x = 192,
  y = 328,
  width = 16,
  height = 8,
  pattern = "hole_floor_below",
}

tile{
  layer = 0,
  x = 208,
  y = 344,
  width = 8,
  height = 8,
  pattern = "hole_edge_7",
  tileset = "oceanset_inside",
}

tile{
  layer = 0,
  x = 200,
  y = 352,
  width = 8,
  height = 8,
  pattern = "hole_edge_4",
  tileset = "oceanset_inside",
}

tile{
  layer = 0,
  x = 192,
  y = 328,
  width = 8,
  height = 8,
  pattern = "hole_edge",
  tileset = "oceanset_inside",
}

tile{
  layer = 0,
  x = 200,
  y = 328,
  width = 8,
  height = 8,
  pattern = "hole_edge_1",
  tileset = "oceanset_inside",
}

tile{
  layer = 0,
  x = 184,
  y = 336,
  width = 8,
  height = 8,
  pattern = "hole_edge",
  tileset = "oceanset_inside",
}

tile{
  layer = 0,
  x = 192,
  y = 336,
  width = 8,
  height = 8,
  pattern = "hole_edge_9",
  tileset = "oceanset_inside",
}

tile{
  layer = 0,
  x = 200,
  y = 336,
  width = 8,
  height = 8,
  pattern = "hole_edge_11",
  tileset = "oceanset_inside",
}

tile{
  layer = 0,
  x = 208,
  y = 336,
  width = 8,
  height = 8,
  pattern = "hole_edge_1",
  tileset = "oceanset_inside",
}

tile{
  layer = 0,
  x = 184,
  y = 344,
  width = 8,
  height = 8,
  pattern = "hole_edge_2",
  tileset = "oceanset_inside",
}

tile{
  layer = 0,
  x = 192,
  y = 344,
  width = 8,
  height = 8,
  pattern = "hole_edge_10",
  tileset = "oceanset_inside",
}

tile{
  layer = 0,
  x = 192,
  y = 352,
  width = 8,
  height = 8,
  pattern = "hole_edge_2",
  tileset = "oceanset_inside",
}

tile{
  layer = 0,
  x = 208,
  y = 352,
  width = 8,
  height = 8,
  pattern = "hole_edge_3",
  tileset = "oceanset_inside",
}

tile{
  layer = 0,
  x = 448,
  y = 512,
  width = 32,
  height = 32,
  pattern = "10",
}

tile{
  layer = 0,
  x = 352,
  y = 544,
  width = 256,
  height = 128,
  pattern = "10",
}

tile{
  layer = 0,
  x = 448,
  y = 480,
  width = 32,
  height = 32,
  pattern = "35",
  tileset = "oceanset_inside",
}

tile{
  layer = 0,
  x = 352,
  y = 512,
  width = 64,
  height = 32,
  pattern = "35",
  tileset = "oceanset_inside",
}

tile{
  layer = 0,
  x = 512,
  y = 512,
  width = 96,
  height = 32,
  pattern = "35",
  tileset = "oceanset_inside",
}

tile{
  layer = 0,
  x = 320,
  y = 544,
  width = 32,
  height = 128,
  pattern = "41",
  tileset = "oceanset_inside",
}

tile{
  layer = 0,
  x = 608,
  y = 544,
  width = 32,
  height = 128,
  pattern = "37",
  tileset = "oceanset_inside",
}

tile{
  layer = 0,
  x = 352,
  y = 672,
  width = 256,
  height = 32,
  pattern = "39",
  tileset = "oceanset_inside",
}

tile{
  layer = 0,
  x = 416,
  y = 480,
  width = 32,
  height = 32,
  pattern = "34",
  tileset = "oceanset_inside",
}

tile{
  layer = 0,
  x = 480,
  y = 480,
  width = 32,
  height = 32,
  pattern = "36",
  tileset = "oceanset_inside",
}

tile{
  layer = 0,
  x = 320,
  y = 512,
  width = 32,
  height = 32,
  pattern = "34",
  tileset = "oceanset_inside",
}

tile{
  layer = 0,
  x = 416,
  y = 512,
  width = 32,
  height = 32,
  pattern = "44",
  tileset = "oceanset_inside",
}

tile{
  layer = 0,
  x = 480,
  y = 512,
  width = 32,
  height = 32,
  pattern = "45",
  tileset = "oceanset_inside",
}

tile{
  layer = 0,
  x = 608,
  y = 512,
  width = 32,
  height = 32,
  pattern = "36",
  tileset = "oceanset_inside",
}

tile{
  layer = 0,
  x = 320,
  y = 672,
  width = 32,
  height = 32,
  pattern = "40",
  tileset = "oceanset_inside",
}

tile{
  layer = 0,
  x = 608,
  y = 672,
  width = 32,
  height = 32,
  pattern = "38",
  tileset = "oceanset_inside",
}

tile{
  layer = 0,
  x = 608,
  y = 512,
  width = 32,
  height = 32,
  pattern = "46",
}

tile{
  layer = 0,
  x = 320,
  y = 512,
  width = 32,
  height = 32,
  pattern = "46_2",
}

tile{
  layer = 0,
  x = 320,
  y = 672,
  width = 32,
  height = 32,
  pattern = "46_3",
}

tile{
  layer = 0,
  x = 608,
  y = 672,
  width = 32,
  height = 32,
  pattern = "46_4",
}

tile{
  layer = 0,
  x = 448,
  y = 448,
  width = 8,
  height = 32,
  pattern = "50",
}

tile{
  layer = 0,
  x = 456,
  y = 448,
  width = 16,
  height = 32,
  pattern = "52",
}

tile{
  layer = 0,
  x = 472,
  y = 448,
  width = 8,
  height = 32,
  pattern = "51",
}

tile{
  layer = 0,
  x = 472,
  y = 480,
  width = 8,
  height = 32,
  pattern = "51_3",
}

tile{
  layer = 0,
  x = 456,
  y = 480,
  width = 16,
  height = 32,
  pattern = "52_4",
}

tile{
  layer = 0,
  x = 448,
  y = 480,
  width = 8,
  height = 32,
  pattern = "50_3",
}

tile{
  layer = 0,
  x = 32,
  y = 512,
  width = 256,
  height = 160,
  pattern = "20_21",
}

tile{
  layer = 0,
  x = 32,
  y = 480,
  width = 256,
  height = 32,
  pattern = "35_5",
  tileset = "oceanset_inside",
}

tile{
  layer = 0,
  x = 0,
  y = 512,
  width = 32,
  height = 160,
  pattern = "41_5",
  tileset = "oceanset_inside",
}

tile{
  layer = 0,
  x = 288,
  y = 512,
  width = 32,
  height = 160,
  pattern = "37_6",
  tileset = "oceanset_inside",
}

tile{
  layer = 0,
  x = 32,
  y = 672,
  width = 256,
  height = 32,
  pattern = "39_6",
  tileset = "oceanset_inside",
}

tile{
  layer = 0,
  x = 0,
  y = 480,
  width = 32,
  height = 32,
  pattern = "34_5",
  tileset = "oceanset_inside",
}

tile{
  layer = 0,
  x = 288,
  y = 480,
  width = 32,
  height = 32,
  pattern = "36_5",
  tileset = "oceanset_inside",
}

tile{
  layer = 0,
  x = 0,
  y = 672,
  width = 32,
  height = 32,
  pattern = "40_6",
  tileset = "oceanset_inside",
}

tile{
  layer = 0,
  x = 288,
  y = 672,
  width = 32,
  height = 32,
  pattern = "38_5",
  tileset = "oceanset_inside",
}

tile{
  layer = 0,
  x = 208,
  y = 512,
  width = 80,
  height = 48,
  pattern = "hole",
}

tile{
  layer = 0,
  x = 32,
  y = 512,
  width = 80,
  height = 48,
  pattern = "hole",
}

tile{
  layer = 0,
  x = 32,
  y = 624,
  width = 80,
  height = 48,
  pattern = "hole",
}

tile{
  layer = 0,
  x = 208,
  y = 624,
  width = 80,
  height = 48,
  pattern = "hole",
}

tile{
  layer = 0,
  x = 80,
  y = 544,
  width = 160,
  height = 128,
  pattern = "hole",
}

tile{
  layer = 0,
  x = 40,
  y = 512,
  width = 64,
  height = 8,
  pattern = "hole_edge_5",
  tileset = "oceanset_inside",
}

tile{
  layer = 0,
  x = 216,
  y = 512,
  width = 64,
  height = 8,
  pattern = "hole_edge_5",
  tileset = "oceanset_inside",
}

tile{
  layer = 0,
  x = 32,
  y = 520,
  width = 8,
  height = 32,
  pattern = "hole_edge_6",
  tileset = "oceanset_inside",
}

tile{
  layer = 0,
  x = 104,
  y = 520,
  width = 8,
  height = 24,
  pattern = "hole_edge_7",
  tileset = "oceanset_inside",
}

tile{
  layer = 0,
  x = 208,
  y = 520,
  width = 8,
  height = 24,
  pattern = "hole_edge_6",
  tileset = "oceanset_inside",
}

tile{
  layer = 0,
  x = 280,
  y = 520,
  width = 8,
  height = 32,
  pattern = "hole_edge_7",
  tileset = "oceanset_inside",
}

tile{
  layer = 0,
  x = 112,
  y = 544,
  width = 96,
  height = 8,
  pattern = "hole_edge_5",
  tileset = "oceanset_inside",
}

tile{
  layer = 0,
  x = 40,
  y = 552,
  width = 40,
  height = 8,
  pattern = "hole_edge_4",
  tileset = "oceanset_inside",
}

tile{
  layer = 0,
  x = 240,
  y = 552,
  width = 40,
  height = 8,
  pattern = "hole_edge_4",
  tileset = "oceanset_inside",
}

tile{
  layer = 0,
  x = 80,
  y = 560,
  width = 8,
  height = 64,
  pattern = "hole_edge_6",
  tileset = "oceanset_inside",
}

tile{
  layer = 0,
  x = 232,
  y = 560,
  width = 8,
  height = 64,
  pattern = "hole_edge_7",
  tileset = "oceanset_inside",
}

tile{
  layer = 0,
  x = 40,
  y = 624,
  width = 40,
  height = 8,
  pattern = "hole_edge_5",
  tileset = "oceanset_inside",
}

tile{
  layer = 0,
  x = 240,
  y = 624,
  width = 40,
  height = 8,
  pattern = "hole_edge_5",
  tileset = "oceanset_inside",
}

tile{
  layer = 0,
  x = 32,
  y = 632,
  width = 8,
  height = 32,
  pattern = "hole_edge_6",
  tileset = "oceanset_inside",
}

tile{
  layer = 0,
  x = 280,
  y = 632,
  width = 8,
  height = 32,
  pattern = "hole_edge_7",
  tileset = "oceanset_inside",
}

tile{
  layer = 0,
  x = 40,
  y = 664,
  width = 240,
  height = 8,
  pattern = "hole_edge_4",
  tileset = "oceanset_inside",
}

tile{
  layer = 0,
  x = 32,
  y = 512,
  width = 8,
  height = 8,
  pattern = "hole_edge",
  tileset = "oceanset_inside",
}

tile{
  layer = 0,
  x = 104,
  y = 512,
  width = 8,
  height = 8,
  pattern = "hole_edge_1",
  tileset = "oceanset_inside",
}

tile{
  layer = 0,
  x = 208,
  y = 512,
  width = 8,
  height = 8,
  pattern = "hole_edge",
  tileset = "oceanset_inside",
}

tile{
  layer = 0,
  x = 280,
  y = 512,
  width = 8,
  height = 8,
  pattern = "hole_edge_1",
  tileset = "oceanset_inside",
}

tile{
  layer = 0,
  x = 104,
  y = 544,
  width = 8,
  height = 8,
  pattern = "hole_edge_11",
  tileset = "oceanset_inside",
}

tile{
  layer = 0,
  x = 208,
  y = 544,
  width = 8,
  height = 8,
  pattern = "hole_edge_9",
  tileset = "oceanset_inside",
}

tile{
  layer = 0,
  x = 32,
  y = 552,
  width = 8,
  height = 8,
  pattern = "hole_edge_2",
  tileset = "oceanset_inside",
}

tile{
  layer = 0,
  x = 80,
  y = 552,
  width = 8,
  height = 8,
  pattern = "hole_edge_10",
  tileset = "oceanset_inside",
}

tile{
  layer = 0,
  x = 232,
  y = 552,
  width = 8,
  height = 8,
  pattern = "hole_edge_8",
  tileset = "oceanset_inside",
}

tile{
  layer = 0,
  x = 280,
  y = 552,
  width = 8,
  height = 8,
  pattern = "hole_edge_3",
  tileset = "oceanset_inside",
}

tile{
  layer = 0,
  x = 32,
  y = 624,
  width = 8,
  height = 8,
  pattern = "hole_edge",
  tileset = "oceanset_inside",
}

tile{
  layer = 0,
  x = 80,
  y = 624,
  width = 8,
  height = 8,
  pattern = "hole_edge_9",
  tileset = "oceanset_inside",
}

tile{
  layer = 0,
  x = 232,
  y = 624,
  width = 8,
  height = 8,
  pattern = "hole_edge_11",
  tileset = "oceanset_inside",
}

tile{
  layer = 0,
  x = 280,
  y = 624,
  width = 8,
  height = 8,
  pattern = "hole_edge_1",
  tileset = "oceanset_inside",
}

tile{
  layer = 0,
  x = 32,
  y = 664,
  width = 8,
  height = 8,
  pattern = "hole_edge_2",
  tileset = "oceanset_inside",
}

tile{
  layer = 0,
  x = 280,
  y = 664,
  width = 8,
  height = 8,
  pattern = "hole_edge_3",
  tileset = "oceanset_inside",
}

tile{
  layer = 0,
  x = 96,
  y = 568,
  width = 128,
  height = 8,
  pattern = "134",
  tileset = "oceanset_outside",
}

tile{
  layer = 0,
  x = 224,
  y = 568,
  width = 16,
  height = 8,
  pattern = "133",
  tileset = "oceanset_outside",
}

tile{
  layer = 0,
  x = 80,
  y = 568,
  width = 16,
  height = 8,
  pattern = "135",
  tileset = "oceanset_outside",
}

tile{
  layer = 0,
  x = 96,
  y = 608,
  width = 128,
  height = 8,
  pattern = "134",
  tileset = "oceanset_outside",
}

tile{
  layer = 0,
  x = 224,
  y = 608,
  width = 16,
  height = 8,
  pattern = "133",
  tileset = "oceanset_outside",
}

tile{
  layer = 0,
  x = 80,
  y = 608,
  width = 16,
  height = 8,
  pattern = "135",
  tileset = "oceanset_outside",
}

tile{
  layer = 0,
  x = 80,
  y = 576,
  width = 160,
  height = 32,
  pattern = "grate_1",
}

tile{
  layer = 0,
  x = 192,
  y = 480,
  width = 16,
  height = 32,
  pattern = "47_3",
}

tile{
  layer = 0,
  x = 0,
  y = 560,
  width = 32,
  height = 16,
  pattern = "72_4",
}

tile{
  layer = 0,
  x = 0,
  y = 608,
  width = 32,
  height = 16,
  pattern = "72_4",
}

tile{
  layer = 0,
  x = 288,
  y = 560,
  width = 32,
  height = 16,
  pattern = "72_3",
}

tile{
  layer = 0,
  x = 288,
  y = 608,
  width = 32,
  height = 16,
  pattern = "72_3",
}

tile{
  layer = 0,
  x = 72,
  y = 672,
  width = 16,
  height = 32,
  pattern = "47_4",
}

tile{
  layer = 0,
  x = 232,
  y = 672,
  width = 16,
  height = 32,
  pattern = "47_4",
}

tile{
  layer = 0,
  x = 152,
  y = 672,
  width = 16,
  height = 32,
  pattern = "47_4",
}

tile{
  layer = 0,
  x = 208,
  y = 496,
  width = 16,
  height = 16,
  pattern = "102_5",
}

tile{
  layer = 0,
  x = 208,
  y = 480,
  width = 16,
  height = 16,
  pattern = "101_6",
}

tile{
  layer = 0,
  x = 224,
  y = 488,
  width = 16,
  height = 16,
  pattern = "102_5",
}

tile{
  layer = 0,
  x = 224,
  y = 480,
  width = 16,
  height = 16,
  pattern = "101_6",
}

tile{
  layer = 0,
  x = 248,
  y = 496,
  width = 16,
  height = 16,
  pattern = "102_5",
}

tile{
  layer = 0,
  x = 248,
  y = 480,
  width = 16,
  height = 16,
  pattern = "101_6",
}

tile{
  layer = 0,
  x = 272,
  y = 480,
  width = 16,
  height = 16,
  pattern = "102_5",
}

tile{
  layer = 0,
  x = 216,
  y = 480,
  width = 16,
  height = 16,
  pattern = "102_5",
}

tile{
  layer = 0,
  x = 176,
  y = 480,
  width = 16,
  height = 16,
  pattern = "102_5",
}

tile{
  layer = 0,
  x = 40,
  y = 480,
  width = 16,
  height = 16,
  pattern = "102_5",
}

tile{
  layer = 0,
  x = 104,
  y = 480,
  width = 16,
  height = 16,
  pattern = "102_5",
}

tile{
  layer = 0,
  x = 112,
  y = 480,
  width = 16,
  height = 32,
  pattern = "47_3",
}

tile{
  layer = 0,
  x = 80,
  y = 496,
  width = 16,
  height = 16,
  pattern = "102_5",
}

tile{
  layer = 0,
  x = 80,
  y = 480,
  width = 16,
  height = 16,
  pattern = "101_6",
}

tile{
  layer = 0,
  x = 56,
  y = 488,
  width = 16,
  height = 16,
  pattern = "102_5",
}

tile{
  layer = 0,
  x = 56,
  y = 480,
  width = 16,
  height = 16,
  pattern = "101_6",
}

tile{
  layer = 0,
  x = 64,
  y = 480,
  width = 16,
  height = 16,
  pattern = "102_5",
}

tile{
  layer = 0,
  x = 16,
  y = 480,
  width = 16,
  height = 16,
  pattern = "102_5",
}

tile{
  layer = 0,
  x = 144,
  y = 512,
  width = 32,
  height = 32,
  pattern = "statue_base",
}

tile{
  layer = 0,
  x = 144,
  y = 512,
  width = 32,
  height = 32,
  pattern = "statue_3",
}

tile{
  layer = 0,
  x = 384,
  y = 272,
  width = 32,
  height = 80,
  pattern = "17_2",
}

tile{
  layer = 0,
  x = 416,
  y = 320,
  width = 160,
  height = 32,
  pattern = "17_2",
}

tile{
  layer = 0,
  x = 544,
  y = 352,
  width = 32,
  height = 80,
  pattern = "17_2",
}

tile{
  layer = 0,
  x = 352,
  y = 416,
  width = 192,
  height = 32,
  pattern = "17_2",
}

tile{
  layer = 0,
  x = 384,
  y = 312,
  width = 16,
  height = 8,
  pattern = "19_2",
}

tile{
  layer = 0,
  x = 456,
  y = 336,
  width = 16,
  height = 8,
  pattern = "19_2",
}

tile{
  layer = 0,
  x = 480,
  y = 328,
  width = 16,
  height = 8,
  pattern = "19_2",
}

tile{
  layer = 0,
  x = 560,
  y = 360,
  width = 16,
  height = 8,
  pattern = "19_2",
}

tile{
  layer = 0,
  x = 520,
  y = 416,
  width = 16,
  height = 8,
  pattern = "19_2",
}

tile{
  layer = 0,
  x = 416,
  y = 440,
  width = 16,
  height = 8,
  pattern = "19_2",
}

tile{
  layer = 0,
  x = 360,
  y = 416,
  width = 16,
  height = 8,
  pattern = "19_2",
}

tile{
  layer = 0,
  x = 64,
  y = 576,
  width = 8,
  height = 32,
  pattern = "13",
}

tile{
  layer = 0,
  x = 48,
  y = 576,
  width = 16,
  height = 32,
  pattern = "12",
}

tile{
  layer = 0,
  x = 40,
  y = 576,
  width = 8,
  height = 32,
  pattern = "14",
}

tile{
  layer = 0,
  x = 56,
  y = 568,
  width = 8,
  height = 8,
  pattern = "25",
}

tile{
  layer = 0,
  x = 48,
  y = 608,
  width = 8,
  height = 8,
  pattern = "24",
}

tile{
  layer = 0,
  x = 256,
  y = 240,
  width = 64,
  height = 144,
  pattern = "15",
}

tile{
  layer = 0,
  x = 0,
  y = 240,
  width = 256,
  height = 32,
  pattern = "15",
}

tile{
  layer = 0,
  x = 0,
  y = 272,
  width = 32,
  height = 208,
  pattern = "15",
}

tile{
  layer = 0,
  x = 256,
  y = 360,
  width = 16,
  height = 16,
  pattern = "16",
}

tile{
  layer = 0,
  x = 296,
  y = 288,
  width = 16,
  height = 16,
  pattern = "16",
}

tile{
  layer = 0,
  x = 280,
  y = 272,
  width = 16,
  height = 16,
  pattern = "16",
}

tile{
  layer = 0,
  x = 168,
  y = 256,
  width = 16,
  height = 16,
  pattern = "16",
}

tile{
  layer = 0,
  x = 48,
  y = 248,
  width = 16,
  height = 16,
  pattern = "16",
}

tile{
  layer = 0,
  x = 0,
  y = 288,
  width = 16,
  height = 16,
  pattern = "16",
}

tile{
  layer = 0,
  x = 8,
  y = 320,
  width = 16,
  height = 16,
  pattern = "16",
}

tile{
  layer = 0,
  x = 0,
  y = 432,
  width = 16,
  height = 16,
  pattern = "16",
}

tile{
  layer = 0,
  x = 288,
  y = 600,
  width = 32,
  height = 8,
  pattern = "56_8",
}

tile{
  layer = 0,
  x = 288,
  y = 584,
  width = 32,
  height = 16,
  pattern = "55_8",
}

tile{
  layer = 0,
  x = 288,
  y = 576,
  width = 32,
  height = 8,
  pattern = "54_8",
}

tile{
  layer = 0,
  x = 320,
  y = 576,
  width = 32,
  height = 8,
  pattern = "54_3",
}

tile{
  layer = 0,
  x = 320,
  y = 600,
  width = 32,
  height = 8,
  pattern = "56_3",
}

tile{
  layer = 0,
  x = 320,
  y = 584,
  width = 32,
  height = 16,
  pattern = "55_3",
}

tile{
  layer = 0,
  x = 448,
  y = 576,
  width = 128,
  height = 32,
  pattern = "35",
  tileset = "oceanset_inside",
}

tile{
  layer = 0,
  x = 416,
  y = 608,
  width = 32,
  height = 32,
  pattern = "41",
  tileset = "oceanset_inside",
}

tile{
  layer = 0,
  x = 576,
  y = 608,
  width = 32,
  height = 32,
  pattern = "37",
  tileset = "oceanset_inside",
}

tile{
  layer = 0,
  x = 448,
  y = 640,
  width = 128,
  height = 32,
  pattern = "39",
  tileset = "oceanset_inside",
}

tile{
  layer = 0,
  x = 416,
  y = 576,
  width = 32,
  height = 32,
  pattern = "34",
  tileset = "oceanset_inside",
}

tile{
  layer = 0,
  x = 576,
  y = 576,
  width = 32,
  height = 32,
  pattern = "36",
  tileset = "oceanset_inside",
}

tile{
  layer = 0,
  x = 416,
  y = 640,
  width = 32,
  height = 32,
  pattern = "40",
  tileset = "oceanset_inside",
}

tile{
  layer = 0,
  x = 576,
  y = 640,
  width = 32,
  height = 32,
  pattern = "38",
  tileset = "oceanset_inside",
}

tile{
  layer = 0,
  x = 448,
  y = 608,
  width = 128,
  height = 32,
  pattern = "20_17",
}

tile{
  layer = 0,
  x = 600,
  y = 568,
  width = 8,
  height = 8,
  pattern = "79_3",
}

tile{
  layer = 0,
  x = 408,
  y = 568,
  width = 8,
  height = 8,
  pattern = "79_3",
}

tile{
  layer = 0,
  x = 416,
  y = 568,
  width = 184,
  height = 8,
  pattern = "86_3",
}

tile{
  layer = 0,
  x = 408,
  y = 576,
  width = 8,
  height = 24,
  pattern = "98_3",
}

tile{
  layer = 0,
  x = 408,
  y = 648,
  width = 8,
  height = 16,
  pattern = "98_3",
}

tile{
  layer = 0,
  x = 408,
  y = 600,
  width = 8,
  height = 8,
  pattern = "79_3",
}

tile{
  layer = 0,
  x = 408,
  y = 640,
  width = 8,
  height = 8,
  pattern = "79_3",
}

tile{
  layer = 0,
  x = 408,
  y = 664,
  enabled_at_start = false,
  width = 8,
  height = 8,
  pattern = "79_3",
}

tile{
  layer = 0,
  x = 472,
  y = 32,
  width = 16,
  height = 8,
  pattern = "sconce_bottom",
  tileset = "oceanset_outside",
}

tile{
  layer = 0,
  x = 472,
  y = 16,
  width = 16,
  height = 16,
  pattern = "230",
  tileset = "oceanset_outside",
}

tile{
  layer = 0,
  x = 536,
  y = 32,
  width = 16,
  height = 8,
  pattern = "sconce_bottom",
  tileset = "oceanset_outside",
}

tile{
  layer = 0,
  x = 536,
  y = 16,
  width = 16,
  height = 16,
  pattern = "230",
  tileset = "oceanset_outside",
}

tile{
  layer = 0,
  x = 232,
  y = 32,
  width = 16,
  height = 16,
  pattern = "221",
  tileset = "oceanset_outside",
}

tile{
  layer = 0,
  x = 248,
  y = 32,
  width = 16,
  height = 16,
  pattern = "221",
  tileset = "oceanset_outside",
}

tile{
  layer = 0,
  x = 360,
  y = 32,
  width = 16,
  height = 16,
  pattern = "221",
  tileset = "oceanset_outside",
}

tile{
  layer = 0,
  x = 376,
  y = 32,
  width = 16,
  height = 16,
  pattern = "221",
  tileset = "oceanset_outside",
}

tile{
  layer = 0,
  x = 360,
  y = 24,
  width = 16,
  height = 8,
  pattern = "222",
  tileset = "oceanset_outside",
}

tile{
  layer = 0,
  x = 376,
  y = 24,
  width = 16,
  height = 8,
  pattern = "222",
  tileset = "oceanset_outside",
}

tile{
  layer = 0,
  x = 368,
  y = 24,
  width = 16,
  height = 16,
  pattern = "221",
  tileset = "oceanset_outside",
}

tile{
  layer = 0,
  x = 576,
  y = 544,
  width = 16,
  height = 16,
  pattern = "sand_edge_7",
  tileset = "oceanset_outside",
}

tile{
  layer = 0,
  x = 592,
  y = 544,
  width = 16,
  height = 16,
  pattern = "sand_edge_6",
  tileset = "oceanset_outside",
}

tile{
  layer = 0,
  x = 368,
  y = 656,
  width = 16,
  height = 16,
  pattern = "sand_edge_3",
  tileset = "oceanset_outside",
}

tile{
  layer = 0,
  x = 352,
  y = 640,
  width = 16,
  height = 16,
  pattern = "sand_edge_3",
  tileset = "oceanset_outside",
}

tile{
  layer = 0,
  x = 352,
  y = 656,
  width = 16,
  height = 16,
  pattern = "sand",
  tileset = "oceanset_outside",
}

tile{
  layer = 0,
  x = 352,
  y = 544,
  width = 40,
  height = 16,
  pattern = "225",
  tileset = "oceanset_outside",
}

tile{
  layer = 0,
  x = 528,
  y = 608,
  width = 48,
  height = 32,
  pattern = "water",
  tileset = "oceanset_outside",
}

tile{
  layer = 0,
  x = 520,
  y = 608,
  width = 8,
  height = 32,
  pattern = "21_5",
}

tile{
  layer = 0,
  x = 560,
  y = 608,
  width = 16,
  height = 16,
  pattern = "wave",
  tileset = "oceanset_outside",
}

tile{
  layer = 0,
  x = 536,
  y = 624,
  width = 16,
  height = 16,
  pattern = "wave",
  tileset = "oceanset_outside",
}

tile{
  layer = 0,
  x = 528,
  y = 608,
  width = 16,
  height = 16,
  pattern = "wave_2",
  tileset = "oceanset_outside",
}

tile{
  layer = 0,
  x = 576,
  y = 616,
  width = 8,
  height = 16,
  pattern = "water",
  tileset = "oceanset_outside",
}

tile{
  layer = 0,
  x = 576,
  y = 616,
  width = 32,
  height = 16,
  pattern = "55_4",
  tileset = "oceanset_inside",
}

tile{
  layer = 0,
  x = 576,
  y = 632,
  width = 32,
  height = 8,
  pattern = "56_4",
  tileset = "oceanset_inside",
}

tile{
  layer = 0,
  x = 576,
  y = 608,
  width = 32,
  height = 8,
  pattern = "54_4",
  tileset = "oceanset_inside",
}

separator{
  layer = 0,
  x = 312,
  y = 0,
  width = 16,
  height = 720,
}

separator{
  layer = 0,
  x = 0,
  y = 232,
  width = 640,
  height = 16,
}

destination{
  name = "destination",
  layer = 0,
  x = 208,
  y = 205,
  direction = 1,
}

separator{
  layer = 0,
  x = 0,
  y = 472,
  width = 640,
  height = 16,
}

jumper{
  layer = 0,
  x = 416,
  y = 608,
  width = 8,
  height = 32,
  direction = 0,
  jump_length = 48,
}

tile{
  layer = 1,
  x = 496,
  y = 32,
  width = 32,
  height = 16,
  pattern = "53_5",
}

tile{
  layer = 1,
  x = 320,
  y = 48,
  width = 16,
  height = 32,
  pattern = "57_3",
}

tile{
  layer = 1,
  x = 304,
  y = 48,
  width = 16,
  height = 32,
  pattern = "57_4",
}

tile{
  layer = 1,
  x = 192,
  y = 208,
  width = 32,
  height = 16,
  pattern = "53_4",
}

tile{
  layer = 1,
  x = 32,
  y = 24,
  width = 48,
  height = 8,
  pattern = "69",
}

tile{
  layer = 1,
  x = 112,
  y = 8,
  width = 16,
  height = 16,
  pattern = "74_3",
}

tile{
  layer = 1,
  x = 80,
  y = 8,
  width = 16,
  height = 16,
  pattern = "74",
}

tile{
  layer = 1,
  x = 96,
  y = 8,
  width = 16,
  height = 16,
  pattern = "74_2",
}

tile{
  layer = 1,
  x = 304,
  y = 416,
  width = 16,
  height = 32,
  pattern = "57",
}

tile{
  layer = 1,
  x = 320,
  y = 416,
  width = 16,
  height = 32,
  pattern = "57_2",
}

tile{
  layer = 1,
  x = 384,
  y = 224,
  width = 32,
  height = 16,
  pattern = "53_6",
}

tile{
  layer = 1,
  x = 384,
  y = 240,
  width = 32,
  height = 16,
  pattern = "53_7",
}

tile{
  layer = 1,
  x = 304,
  y = 424,
  width = 16,
  height = 16,
  pattern = "101_3",
}

tile{
  layer = 1,
  x = 304,
  y = 408,
  width = 16,
  height = 16,
  pattern = "101_3",
}

tile{
  layer = 1,
  x = 288,
  y = 424,
  width = 16,
  height = 16,
  pattern = "101_4",
}

tile{
  layer = 1,
  x = 288,
  y = 408,
  width = 16,
  height = 16,
  pattern = "101_4",
}

tile{
  layer = 1,
  x = 304,
  y = 440,
  width = 16,
  height = 16,
  pattern = "101_3",
}

tile{
  layer = 1,
  x = 296,
  y = 440,
  width = 16,
  height = 16,
  pattern = "101_4",
}

tile{
  layer = 1,
  x = 304,
  y = 416,
  width = 16,
  height = 16,
  pattern = "101_4",
}

tile{
  layer = 1,
  x = 448,
  y = 464,
  width = 32,
  height = 16,
  pattern = "53",
}

tile{
  layer = 1,
  x = 448,
  y = 480,
  width = 32,
  height = 16,
  pattern = "53_3",
}

tile{
  layer = 1,
  x = 304,
  y = 576,
  width = 16,
  height = 32,
  pattern = "57_5",
}

tile{
  layer = 1,
  x = 320,
  y = 576,
  width = 16,
  height = 32,
  pattern = "57_3",
}

tile{
  layer = 1,
  x = 232,
  y = 24,
  width = 16,
  height = 8,
  pattern = "222",
  tileset = "oceanset_outside",
}

tile{
  layer = 1,
  x = 248,
  y = 24,
  width = 16,
  height = 8,
  pattern = "222",
  tileset = "oceanset_outside",
}

tile{
  layer = 1,
  x = 368,
  y = 16,
  width = 16,
  height = 8,
  pattern = "222",
  tileset = "oceanset_outside",
}

tile{
  layer = 1,
  x = 352,
  y = 528,
  width = 40,
  height = 16,
  pattern = "226",
  tileset = "oceanset_outside",
}

tile{
  layer = 1,
  x = 592,
  y = 608,
  width = 16,
  height = 32,
  pattern = "57_4",
  tileset = "oceanset_inside",
}

