animation{
  name = "walking",
  src_image = "enemies/bosses/teleido/teleido_wizard.png",
  frame_delay = 80,
  frame_to_loop_on = 0,
  directions = {
    { x = 0, y = 64, frame_width = 32, frame_height = 32, origin_x = 16, origin_y = 29, num_frames = 8 },
    { x = 0, y = 32, frame_width = 32, frame_height = 32, origin_x = 16, origin_y = 29, num_frames = 8 },
    { x = 0, y = 96, frame_width = 32, frame_height = 32, origin_x = 16, origin_y = 29, num_frames = 8 },
    { x = 0, y = 0, frame_width = 32, frame_height = 32, origin_x = 16, origin_y = 29, num_frames = 8 },
  },
}
